[
    {
        "name": "default"
    },
    {
        "name": "mes_5",
        "max_ep_step": 5
    },
    {
        "name": "mes_15",
        "max_ep_step": 15
    },
    {
        "name": "mes_20",
        "max_ep_step": 20
    },
    {
        "name": "mes_25",
        "max_ep_step": 25
    },
    {
        "name": "mes_50",
        "max_ep_step": 50
    },
    {
        "name": "mes_100",
        "max_ep_step": 100
    },
    {
        "name": "gamma_70",
        "gamma": 0.7
    },
    {
        "name": "gamma_80",
        "gamma": 0.80
    },
    {
        "name": "gamma_85",
        "gamma": 0.85
    },
    {
        "name": "gamma_95",
        "gamma": 0.95
    },
    {
        "name": "entropy_2",
        "entropy_beta": 0.02
    },
    {
        "name": "entropy_3",
        "entropy_beta": 0.03
    },
    {
        "name": "lr_2",
        "lr_a": 0.02,
        "lr_c": 0.02
    },
    {
        "name": "lr_3",
        "lr_a": 0.03,
        "lr_c": 0.03
    },
    {
        "name": "lr_01",
        "lr_a": 0.001,
        "lr_c": 0.001
    },
    {
        "name": "hn1_15_hn2_9",
        "hn_1": 15,
        "hn_2": 9
    },
    {
        "name": "hn1_100_hn2_50",
        "hn_1": 100,
        "hn_2": 50
    },
    {
        "name": "hn1_64_hn2_64",
        "hn_1": 100,
        "hn_2": 50
    },
    {
        "name": "mes_100_gamma_80_hn_15-9",
        "max_ep_step": 100,
        "gamma": 0.8,
        "hn_1": 15,
        "hn_2": 9
    }

]
